[
  {
    "range": "<1.12.3||>2.0.0a <3.0.4",
    "version": "4.5.1",
    "satisfies": false
  },
  {
    "range": ">=3.2.0a <3.2.20||>=4.0.0a <4.0.11||>=4.1.0a <4.1.7||>=4.2.0.a <4.2.0.beta3",
    "version": "4.5.1",
    "satisfies": false
  },
  {
    "range": ">=3.2.0.0.alpha <3.2.22.2||>=4.0.0.0.alpha <4.1.14.2||>=4.2.0.0.alpha <4.2.5.2",
    "version": "4.5.1",
    "satisfies": false
  },
  {
    "range": ">=5.0.0.alpha <5.0.0.beta1.1||>=4.2.0.alpha <4.2.5.1||>=4.0.0.alpha <4.1.14.1||<3.2.22.1",
    "version": "4.5.1",
    "satisfies": false
  },
  {
    "range": "<2.3.18 || >=2.4.0 <3.1.12 || >=3.2.0 <3.2.13",
    "version": "4.5.1",
    "satisfies": false
  },
  {
    "range": ">=3.0.0 <3.0.17 || >=3.1.0 <3.1.8 || >=3.2.0 <3.2.8",
    "version": "4.5.1",
    "satisfies": false
  },
  {
    "range": "<2.3.15 || >=2.4.0 <3.0.19 || >=3.1.0 <3.1.10 || >=3.2.0 <3.2.11",
    "version": "4.5.1",
    "satisfies": false
  },
  {
    "range": ">=3.0.0.alpha <3.2.22.3",
    "version": "4.5.1",
    "satisfies": false
  },
  {
    "range": "<3.0.17 || >=3.1.0 <3.1.8 || >=3.2.0 <3.2.8",
    "version": "4.5.1",
    "satisfies": false
  },
  {
    "range": ">=2.3.0.alpha0 <2.3.13",
    "version": "4.5.1",
    "satisfies": false
  },
  {
    "range": ">=3.0.6 <3.2.16||>=4.0.0.beta1 <4.0.2",
    "version": "4.5.1",
    "satisfies": false
  },
  {
    "range": ">=3.0.0.alpha0 <3.0.12||>=3.1.0.alpha0 <3.1.4||>=3.2.0.alpha0 <3.2.2",
    "version": "4.5.1",
    "satisfies": false
  },
  {
    "range": "<3.2.22.1",
    "version": "4.5.1",
    "satisfies": false
  },
  {
    "range": ">=4.2.0.alpha <4.2.5.1||>=4.0.0.alpha <4.1.14.1",
    "version": "4.5.1",
    "satisfies": false
  },
  {
    "range": ">=2.0.0 <3.2.16||>=4.0.0.beta1 <4.0.2",
    "version": "4.5.1",
    "satisfies": false
  },
  {
    "range": ">=3.2.0.0.alpha <3.2.22.2",
    "version": "4.5.1",
    "satisfies": false
  },
  {
    "range": ">=4.0.0 <4.0.2",
    "version": "4.5.1",
    "satisfies": false
  },
  {
    "range": ">=3.0.0 <3.0.16 || >=3.1.0 <3.1.7 || >=3.2.0 <3.2.7",
    "version": "4.5.1",
    "satisfies": false
  },
  {
    "range": ">=3.0.0.alpha0 <3.0.11||>=3.1.0.alpha0 <3.1.2",
    "version": "4.5.1",
    "satisfies": false
  },
  {
    "range": ">=3.2.0a <3.2.21||>=4.0.0a <4.0.11.1||>=4.1.0a <4.1.7.1",
    "version": "4.5.1",
    "satisfies": false
  },
  {
    "range": "<3.2.16||>=4.0.0 <4.0.2",
    "version": "4.5.1",
    "satisfies": false
  },
  {
    "range": "<2.3.16 || >=2.4.0 <3.0.20",
    "version": "4.5.1",
    "satisfies": false
  },
  {
    "range": ">=3.0.0 <3.1.12 || >=3.2.0 <3.2.13",
    "version": "4.5.1",
    "satisfies": false
  },
  {
    "range": ">=3.0.0 <3.0.12||>=3.1.0 <3.1.4||>=3.2.0 <3.2.2",
    "version": "4.5.1",
    "satisfies": false
  },
  {
    "range": "<3.2.22||>=4.0.0a <4.1.11||>=4.2.0a <4.2.2",
    "version": "4.5.1",
    "satisfies": false
  },
  {
    "range": ">=4.1.0a <4.1.11||>=4.2.0a <4.2.2",
    "version": "4.5.1",
    "satisfies": false
  },
  {
    "range": "<2.5.1",
    "version": "4.5.1",
    "satisfies": false
  },
  {
    "range": "<0.12.1",
    "version": "4.5.1",
    "satisfies": false
  },
  {
    "range": ">=0.0.0 <0.12.1",
    "version": "4.5.1",
    "satisfies": false
  },
  {
    "range": ">0.11.0 <0.13.3",
    "version": "4.5.1",
    "satisfies": false
  },
  {
    "range": "<0.13.6",
    "version": "4.5.1",
    "satisfies": false
  },
  {
    "range": "<1.5.3||>2.0.0 <2.0.5",
    "version": "4.5.1",
    "satisfies": false
  },
  {
    "range": "<1.0.3 || >=1.1.0 <1.1.4 || >=1.2.0 <2.0.2",
    "version": "4.5.1",
    "satisfies": false
  },
  {
    "range": "<2.0.2",
    "version": "4.5.1",
    "satisfies": false
  },
  {
    "range": "<1.4.1||>2.0.0a <2.0.0rc3",
    "version": "4.5.1",
    "satisfies": false
  },
  {
    "range": ">=2.1.0 <4.2.6",
    "version": "4.5.1",
    "satisfies": false
  },
  {
    "range": ">2.0.0a <2.1.2||<1.4.2",
    "version": "4.5.1",
    "satisfies": false
  },
  {
    "range": "<4.2.0",
    "version": "4.5.1",
    "satisfies": false
  },
  {
    "range": "<0.6.1",
    "version": "4.5.1",
    "satisfies": false
  },
  {
    "range": "<1.3.4",
    "version": "4.5.1",
    "satisfies": false
  },
  {
    "range": "=3.0.28",
    "version": "4.5.1",
    "satisfies": false
  },
  {
    "range": "=0.0.1",
    "version": "4.5.1",
    "satisfies": false
  },
  {
    "range": ">=5.0.0.alpha <5.0.0.beta1.1||>=4.2.0.alpha <4.2.5.1||>=4.1.0.alpha <4.1.14.1",
    "version": "4.5.1",
    "satisfies": false
  },
  {
    "range": ">=3.0.0 <3.1.11 || >=3.2.0 <3.2.12",
    "version": "4.5.1",
    "satisfies": false
  },
  {
    "range": "<3.1.3||>=4.0.0a <4.0.4",
    "version": "4.5.1",
    "satisfies": false
  },
  {
    "range": "<0.6",
    "version": "4.5.1",
    "satisfies": false
  },
  {
    "range": "<1.1.8",
    "version": "4.5.1",
    "satisfies": false
  },
  {
    "range": ">=0",
    "version": "4.5.1",
    "satisfies": true
  },
  {
    "range": "<2.2.1",
    "version": "4.5.1",
    "satisfies": false
  },
  {
    "range": "<0.3.3",
    "version": "4.5.1",
    "satisfies": false
  },
  {
    "range": "<0.9.6",
    "version": "4.5.1",
    "satisfies": false
  },
  {
    "range": "<1.0.7",
    "version": "4.5.1",
    "satisfies": false
  },
  {
    "range": ">=0.7.0 <0.9.13",
    "version": "4.5.1",
    "satisfies": false
  },
  {
    "range": "<0.1.1",
    "version": "4.5.1",
    "satisfies": false
  },
  {
    "range": ">=2.0.0 <2.2.5 || >=3.0.0 <3.0.1",
    "version": "4.5.1",
    "satisfies": false
  },
  {
    "range": ">=1.4.0 <1.5.4 || >=1.6 <2.0.5 || >=2.1.0 <2.1.3 || >=2.2.0 <2.2.3",
    "version": "4.5.1",
    "satisfies": false
  },
  {
    "range": "<3.5.4",
    "version": "4.5.1",
    "satisfies": false
  },
  {
    "range": "<4.3.0",
    "version": "4.5.1",
    "satisfies": false
  },
  {
    "range": "<4.2.2",
    "version": "4.5.1",
    "satisfies": false
  },
  {
    "range": ">=4.2.2 <4.3.6",
    "version": "4.5.1",
    "satisfies": false
  },
  {
    "range": ">=3.1.4 <5.2.0",
    "version": "4.5.1",
    "satisfies": true
  },
  {
    "range": "<3.0.5",
    "version": "4.5.1",
    "satisfies": false
  },
  {
    "range": "<4.3.1",
    "version": "4.5.1",
    "satisfies": false
  },
  {
    "range": "<=1.5.0",
    "version": "4.5.1",
    "satisfies": false
  },
  {
    "range": "1.4.1",
    "version": "4.5.1",
    "satisfies": false
  },
  {
    "range": "<0.21.3||>0.22a",
    "version": "4.5.1",
    "satisfies": true
  },
  {
    "range": "<0.3.2",
    "version": "4.5.1",
    "satisfies": false
  },
  {
    "range": ">=0.0.0a",
    "version": "4.5.1",
    "satisfies": true
  },
  {
    "range": "=1.0.0",
    "version": "4.5.1",
    "satisfies": false
  },
  {
    "range": ">=2.3.8",
    "version": "4.5.1",
    "satisfies": true
  },
  {
    "range": "<0.9.16",
    "version": "4.5.1",
    "satisfies": false
  },
  {
    "range": "<=0.2.2",
    "version": "4.5.1",
    "satisfies": false
  },
  {
    "range": ">=3.0.0a <3.0.0.beta.3||>=2.12.0a <2.12.3||>=2.11.0a <2.11.3||>=2.10.0a <2.10.2||>=2.9.0a <2.9.4||>=2.8.0a <2.8.3||>=2.7.0a <2.7.1||>=2.5.0a <2.5.1||>=2.4.0a <2.4.6||>=2.3.0a <2.3.3||>=2.2.0a <2.2.3||>=2.1.0a <2.1.4||>=2.0.0 <2.0.5",
    "version": "4.5.1",
    "satisfies": false
  },
  {
    "range": "=2.1.1",
    "version": "4.5.1",
    "satisfies": false
  },
  {
    "range": "<1.3.0",
    "version": "4.5.1",
    "satisfies": false
  },
  {
    "range": "<1.0.0",
    "version": "4.5.1",
    "satisfies": false
  },
  {
    "range": "<1.6.2",
    "version": "4.5.1",
    "satisfies": false
  },
  {
    "range": "<0.8.2",
    "version": "4.5.1",
    "satisfies": false
  },
  {
    "range": ">=0.5.0 <0.5.4",
    "version": "4.5.1",
    "satisfies": false
  },
  {
    "range": "<0.6.0",
    "version": "4.5.1",
    "satisfies": false
  },
  {
    "range": "<0.5.0",
    "version": "4.5.1",
    "satisfies": false
  },
  {
    "range": "<0.16.0",
    "version": "4.5.1",
    "satisfies": false
  },
  {
    "range": "<3.4.0",
    "version": "4.5.1",
    "satisfies": false
  },
  {
    "range": "<3.4.2",
    "version": "4.5.1",
    "satisfies": false
  },
  {
    "range": ">=1.2.6 <1.2.8",
    "version": "4.5.1",
    "satisfies": false
  },
  {
    "range": "=0.0.7",
    "version": "4.5.1",
    "satisfies": false
  },
  {
    "range": "<3.0.0",
    "version": "4.5.1",
    "satisfies": false
  },
  {
    "range": "<1.7.3",
    "version": "4.5.1",
    "satisfies": false
  },
  {
    "range": ">=1.6.1 <1.8.0",
    "version": "4.5.1",
    "satisfies": false
  },
  {
    "range": "<2.2.0",
    "version": "4.5.1",
    "satisfies": false
  },
  {
    "range": ">=1.0.0 <1.2.0",
    "version": "4.5.1",
    "satisfies": false
  },
  {
    "range": "<1.2.4",
    "version": "4.5.1",
    "satisfies": false
  },
  {
    "range": ">0.0.0",
    "version": "4.5.1",
    "satisfies": true
  },
  {
    "range": "<5.0.0.beta1",
    "version": "4.5.1",
    "satisfies": true
  },
  {
    "range": "=4.2.0.beta1",
    "version": "4.5.1",
    "satisfies": false
  },
  {
    "range": "<=0.8.2",
    "version": "4.5.1",
    "satisfies": false
  },
  {
    "range": ">0",
    "version": "4.5.1",
    "satisfies": true
  },
  {
    "range": ">=0.4.0 <=0.5.2",
    "version": "4.5.1",
    "satisfies": false
  },
  {
    "range": ">=0.0.0",
    "version": "4.5.1",
    "satisfies": true
  },
  {
    "range": "<0.14.5",
    "version": "4.5.1",
    "satisfies": false
  },
  {
    "range": ">=0.2.0 <0.2.2||>=0.4.0 <0.4.2",
    "version": "4.5.1",
    "satisfies": false
  },
  {
    "range": ">=1.1.0 <4.6.3",
    "version": "4.5.1",
    "satisfies": true
  },
  {
    "range": "<0.10.1",
    "version": "4.5.1",
    "satisfies": false
  },
  {
    "range": "<1.0.4",
    "version": "4.5.1",
    "satisfies": false
  },
  {
    "range": "<1.0.3",
    "version": "4.5.1",
    "satisfies": false
  },
  {
    "range": "1.0.2",
    "version": "4.5.1",
    "satisfies": false
  },
  {
    "range": "<3.3.2",
    "version": "4.5.1",
    "satisfies": false
  },
  {
    "range": "<3.2.3",
    "version": "4.5.1",
    "satisfies": false
  },
  {
    "range": "<2.5.5.rc1||>=2.6.0.alpha0 <2.6.6.rc1||>=2.7.0.alpha0 <2.7.0.rc1",
    "version": "4.5.1",
    "satisfies": false
  },
  {
    "range": "<=0.4.14",
    "version": "4.5.1",
    "satisfies": false
  },
  {
    "range": "<=0.0.12",
    "version": "4.5.1",
    "satisfies": false
  },
  {
    "range": "<3.3.0",
    "version": "4.5.1",
    "satisfies": false
  },
  {
    "range": "=0.1.4",
    "version": "4.5.1",
    "satisfies": false
  },
  {
    "range": "<=3.5.0",
    "version": "4.5.1",
    "satisfies": false
  },
  {
    "range": "<=1.0.5.3",
    "version": "4.5.1",
    "satisfies": false
  },
  {
    "range": ">=0.7.0",
    "version": "4.5.1",
    "satisfies": true
  },
  {
    "range": "<0.1.5",
    "version": "4.5.1",
    "satisfies": false
  },
  {
    "range": "=3.0.23",
    "version": "4.5.1",
    "satisfies": false
  },
  {
    "range": ">=2.0.x <2.0.1.rc1||<1.5.4",
    "version": "4.5.1",
    "satisfies": false
  },
  {
    "range": "<1.5.5||2.0.0.beta1",
    "version": "4.5.1",
    "satisfies": false
  },
  {
    "range": ">=0.3.0",
    "version": "4.5.1",
    "satisfies": true
  },
  {
    "range": "<=0.2.0",
    "version": "4.5.1",
    "satisfies": false
  },
  {
    "range": "<1.2.9",
    "version": "4.5.1",
    "satisfies": false
  },
  {
    "range": "<0.5.3",
    "version": "4.5.1",
    "satisfies": false
  },
  {
    "range": ">=3.2.0 <3.5.2",
    "version": "4.5.1",
    "satisfies": false
  },
  {
    "range": "<=0.0.4",
    "version": "4.5.1",
    "satisfies": false
  },
  {
    "range": "<0.12.2",
    "version": "4.5.1",
    "satisfies": false
  },
  {
    "range": ">=1.11.0a <1.11.4||>=1.12.0a <1.12.2||>=1.13.0a <1.13.12||>=2.0.0a <2.0.3||>=2.1.0a <2.1.2||>=2.2.0a <2.2.1",
    "version": "4.5.1",
    "satisfies": false
  },
  {
    "range": ">=1.2.0.alpha0 <1.2.2||>=1.3.0.alpha0 <1.3.2",
    "version": "4.5.1",
    "satisfies": false
  },
  {
    "range": "<1.0.0.rc1.1||1.0.0.rc1.0.0||1.0.0.rc2.0||1.0.0.rc3||1.0.0.rc4||1.0.0.rc5||1.0.0.rc6",
    "version": "4.5.1",
    "satisfies": false
  },
  {
    "range": "<1.0.1||>=1.1.0 <1.1.2||1.2.0||1.3.0||1.4.0.beta.1",
    "version": "4.5.1",
    "satisfies": false
  },
  {
    "range": ">=1.10.0a <1.10.1||>=1.11.0a <1.11.2||>=1.12.0a <1.12.0",
    "version": "4.5.1",
    "satisfies": false
  },
  {
    "range": "<1.0.1||>=1.1.0.alpha0 <1.1.2||>=1.2.0.alpha0 <1.2.1.1||>=1.3.0.alpha0 <1.3.1||1.4.0.beta.1",
    "version": "4.5.1",
    "satisfies": false
  },
  {
    "range": "<2.0.0",
    "version": "4.5.1",
    "satisfies": false
  },
  {
    "range": "<1.1.1",
    "version": "4.5.1",
    "satisfies": false
  },
  {
    "range": "<0.2.3",
    "version": "4.5.1",
    "satisfies": false
  },
  {
    "range": "<=0.5.4",
    "version": "4.5.1",
    "satisfies": false
  },
  {
    "range": "<2.7.2",
    "version": "4.5.1",
    "satisfies": false
  },
  {
    "range": "<=0.1.4",
    "version": "4.5.1",
    "satisfies": false
  },
  {
    "range": "<=0.0.2",
    "version": "4.5.1",
    "satisfies": false
  },
  {
    "range": "=2.1.6",
    "version": "4.5.1",
    "satisfies": false
  },
  {
    "range": "<0.7.8",
    "version": "4.5.1",
    "satisfies": false
  },
  {
    "range": "<1.2.1",
    "version": "4.5.1",
    "satisfies": false
  },
  {
    "range": "<=0.0.9",
    "version": "4.5.1",
    "satisfies": false
  },
  {
    "range": ">=1.3.0 <1.3.1 || >=1.2.0 <1.2.2 || >=1.1.0 <1.1.1 || >=1.0.0 <1.0.4",
    "version": "4.5.1",
    "satisfies": false
  },
  {
    "range": "<2.1.4",
    "version": "4.5.1",
    "satisfies": false
  },
  {
    "range": "<1.3.1",
    "version": "4.5.1",
    "satisfies": false
  },
  {
    "range": "<1.5.5 || >=1.6.0 <1.6.8 || >=1.7.0 <1.7.7",
    "version": "4.5.1",
    "satisfies": false
  },
  {
    "range": "<1.1.0",
    "version": "4.5.1",
    "satisfies": false
  },
  {
    "range": "<1.0.1",
    "version": "4.5.1",
    "satisfies": false
  },
  {
    "range": "=0.2",
    "version": "4.5.1",
    "satisfies": false
  },
  {
    "range": "<0.0.24",
    "version": "4.5.1",
    "satisfies": false
  },
  {
    "range": "<3.2.0",
    "version": "4.5.1",
    "satisfies": false
  },
  {
    "range": "<=1.0.2",
    "version": "4.5.1",
    "satisfies": false
  },
  {
    "range": "<=0.2.1",
    "version": "4.5.1",
    "satisfies": false
  },
  {
    "range": "<1.0.5",
    "version": "4.5.1",
    "satisfies": false
  },
  {
    "range": "<2.0.3",
    "version": "4.5.1",
    "satisfies": false
  },
  {
    "range": "<=0.6.0",
    "version": "4.5.1",
    "satisfies": false
  },
  {
    "range": ">0.0.0a <0.6.4||>0.7.0a <0.7.3",
    "version": "4.5.1",
    "satisfies": false
  },
  {
    "range": "=0.3.8",
    "version": "4.5.1",
    "satisfies": false
  },
  {
    "range": ">=0.0",
    "version": "4.5.1",
    "satisfies": true
  },
  {
    "range": ">=2.0.0 <2.0.13||>=2.1.0 <2.1.11||>=2.2.0 <2.2.5||>=2.3.0 <2.3.10||>=2.4.0 <2.4.11||>=2.5.0 <2.5.3||>=2.6.0 <2.6.3||>=2.7.0 <2.7.8||>=2.8.0 <2.8.2||>=2.9.0 <2.10.4||>=2.11.0 <2.11.2",
    "version": "4.5.1",
    "satisfies": false
  },
  {
    "range": "<2.2.10||>=2.3.0a <2.3.8||>=3.0.0a <3.0.0.rc4||>=2.4.0a <2.4.5",
    "version": "4.5.1",
    "satisfies": false
  },
  {
    "range": ">=1.0.0.rc1 <=1.3.2",
    "version": "4.5.1",
    "satisfies": false
  },
  {
    "range": "<1.3.2",
    "version": "4.5.1",
    "satisfies": false
  },
  {
    "range": ">=0.1.33 <=1.1.2",
    "version": "4.5.1",
    "satisfies": false
  },
  {
    "range": "<4.0.0",
    "version": "4.5.1",
    "satisfies": false
  },
  {
    "range": "<0.10.0",
    "version": "4.5.1",
    "satisfies": false
  },
  {
    "range": "<0.49.1",
    "version": "4.5.1",
    "satisfies": false
  },
  {
    "range": ">=0.3.0 <1.2",
    "version": "4.5.1",
    "satisfies": false
  },
  {
    "range": "=3.2.0.3",
    "version": "4.5.1",
    "satisfies": false
  },
  {
    "range": "=2.0.0.beta3",
    "version": "4.5.1",
    "satisfies": false
  },
  {
    "range": "<2.1.3",
    "version": "4.5.1",
    "satisfies": false
  },
  {
    "range": "<0.6.29",
    "version": "4.5.1",
    "satisfies": false
  },
  {
    "range": "<1.1.3||>=1.2.0 <1.2.5||>=1.3.0.beta <1.3.6",
    "version": "4.5.1",
    "satisfies": false
  },
  {
    "range": "<1.4.6||>=1.5.0a <1.5.4||>=1.6.0a <1.6.2",
    "version": "4.5.1",
    "satisfies": false
  },
  {
    "range": ">=1.4.0 <1.4.5 || >=1.5.0 <1.5.2",
    "version": "4.5.1",
    "satisfies": false
  },
  {
    "range": ">=1.1.0 <1.1.6 || >=1.2.0 <1.2.8 || >=1.3.0 <1.3.10 || >=1.4.0 <1.4.5 || >=1.5.0 <1.5.2",
    "version": "4.5.1",
    "satisfies": false
  },
  {
    "range": ">=2.0.2 <=3.1.1",
    "version": "4.5.1",
    "satisfies": false
  },
  {
    "range": "<4.0.1",
    "version": "4.5.1",
    "satisfies": false
  },
  {
    "range": ">=5.0.0.alpha <5.0.0.beta1.1||>=4.2.0.alpha <4.2.5.1||>=4.0.0.alpha <4.1.14.1||>=3.1.0.alpha <3.2.22.1",
    "version": "4.5.1",
    "satisfies": false
  },
  {
    "range": ">4.0.0 <4.0.9||>4.1.0 <4.1.5",
    "version": "4.5.1",
    "satisfies": false
  },
  {
    "range": ">=4.0.0.alpha <4.2.7.1",
    "version": "4.5.1",
    "satisfies": false
  },
  {
    "range": "<2.3.18 || >=2.4.0 <3.0.0 || >=3.1.0 <3.1.12 || >=3.2.0 <3.2.13",
    "version": "4.5.1",
    "satisfies": false
  },
  {
    "range": "<3.0.19 || >=3.1.0 <3.1.10 || >=3.2.0 <3.2.11",
    "version": "4.5.1",
    "satisfies": false
  },
  {
    "range": ">=3.0.0 <3.0.18||>=3.1.0 <3.1.9||>=3.2.0 <3.2.10",
    "version": "4.5.1",
    "satisfies": false
  },
  {
    "range": "<2.3.17",
    "version": "4.5.1",
    "satisfies": false
  },
  {
    "range": "<2.3.17 || >=2.4.0 <3.1.0",
    "version": "4.5.1",
    "satisfies": false
  },
  {
    "range": ">=3.0.0 <3.0.13||>=3.1.0 <3.1.5||>=3.2.0 <3.2.4",
    "version": "4.5.1",
    "satisfies": false
  },
  {
    "range": ">2.0.0 <3.2.19",
    "version": "4.5.1",
    "satisfies": false
  },
  {
    "range": ">4.0.0 <4.0.7||>4.1.0 <4.1.3",
    "version": "4.5.1",
    "satisfies": false
  },
  {
    "range": "<=0.7",
    "version": "4.5.1",
    "satisfies": false
  },
  {
    "range": "<=0.1.5",
    "version": "4.5.1",
    "satisfies": false
  },
  {
    "range": "<=1.0.8",
    "version": "4.5.1",
    "satisfies": false
  },
  {
    "range": "<0.5.2",
    "version": "4.5.1",
    "satisfies": false
  },
  {
    "range": "<1.0.0.beta",
    "version": "4.5.1",
    "satisfies": false
  },
  {
    "range": ">=1.6.0 <=1.6.7",
    "version": "4.5.1",
    "satisfies": false
  },
  {
    "range": "<1.10.4",
    "version": "4.5.1",
    "satisfies": false
  },
  {
    "range": "<1.10.3",
    "version": "4.5.1",
    "satisfies": false
  },
  {
    "range": "<1.6.6.4||>=1.6.7.rc1 <1.6.7.rc4",
    "version": "4.5.1",
    "satisfies": false
  },
  {
    "range": "<1.8.2",
    "version": "4.5.1",
    "satisfies": false
  },
  {
    "range": "<1.6.6.3||>=1.6.7.rc2 <1.6.7.rc4",
    "version": "4.5.1",
    "satisfies": false
  },
  {
    "range": "<1.6.6.4 ||>=1.6.7.rc2 <1.6.7.rc4",
    "version": "4.5.1",
    "satisfies": false
  },
  {
    "range": "<1.5.4",
    "version": "4.5.1",
    "satisfies": false
  },
  {
    "range": "<1.6.3",
    "version": "4.5.1",
    "satisfies": false
  },
  {
    "range": "<1.7.1",
    "version": "4.5.1",
    "satisfies": false
  },
  {
    "range": ">=1.6.0.rc1 <1.6.7.1",
    "version": "4.5.1",
    "satisfies": false
  },
  {
    "range": ">=1.6.0.0a <1.6.7.2",
    "version": "4.5.1",
    "satisfies": false
  },
  {
    "range": "<1.6.8",
    "version": "4.5.1",
    "satisfies": false
  },
  {
    "range": "<1.8.1",
    "version": "4.5.1",
    "satisfies": false
  },
  {
    "range": ">=1.5.x <1.5.11 || >=1.6.x <1.6.1",
    "version": "4.5.1",
    "satisfies": false
  },
  {
    "range": "<1.7.2",
    "version": "4.5.1",
    "satisfies": false
  },
  {
    "range": ">=4.0.0.alpha <4.2.7.1||>=5.0.0.alpha <5.0.0.1",
    "version": "4.5.1",
    "satisfies": false
  },
  {
    "range": ">=5.0.0.alpha <5.0.0.beta1.1||>=4.2.0.alpha <4.2.5.1||<4.1.14.1",
    "version": "4.5.1",
    "satisfies": false
  },
  {
    "range": ">=4.0.0.0.alpha <4.1.14.2",
    "version": "4.5.1",
    "satisfies": false
  },
  {
    "range": "<0.5.1||>=0.6.0 <0.6.6",
    "version": "4.5.1",
    "satisfies": false
  },
  {
    "range": ">=3.0.0 <3.0.21 || >=4.0.0 <4.0.5",
    "version": "4.5.1",
    "satisfies": false
  },
  {
    "range": "<4.0.38",
    "version": "4.5.1",
    "satisfies": false
  },
  {
    "range": ">=4.0.5 <4.0.33",
    "version": "4.5.1",
    "satisfies": false
  },
  {
    "range": "<5.1.0",
    "version": "4.5.1",
    "satisfies": true
  },
  {
    "range": "<4.0.8",
    "version": "4.5.1",
    "satisfies": false
  },
  {
    "range": ">=4.0.0a <4.0.60||>=5.0.0a <5.0.22",
    "version": "4.5.1",
    "satisfies": false
  },
  {
    "range": ">=2.0.0.rc3 <2.0.2",
    "version": "4.5.1",
    "satisfies": false
  },
  {
    "range": "=0.1.5",
    "version": "4.5.1",
    "satisfies": false
  },
  {
    "range": "<2.1.2",
    "version": "4.5.1",
    "satisfies": false
  },
  {
    "range": ">=3.0.0 <3.2.15",
    "version": "4.5.1",
    "satisfies": false
  },
  {
    "range": ">=2.3.0 <3.9.5 || >=3.10 <3.12 || >=4.0.0.preview2 <4.0.0.rc.2",
    "version": "4.5.1",
    "satisfies": false
  },
  {
    "range": "<=1.0.1",
    "version": "4.5.1",
    "satisfies": false
  },
  {
    "range": "<2.6.1",
    "version": "4.5.1",
    "satisfies": false
  },
  {
    "range": ">=1.1.0.rc1 <1.1.0.rc5",
    "version": "4.5.1",
    "satisfies": false
  },
  {
    "range": "<2.8.0",
    "version": "4.5.1",
    "satisfies": false
  },
  {
    "range": "<2.2.2",
    "version": "4.5.1",
    "satisfies": false
  },
  {
    "range": "<=0.0.3",
    "version": "4.5.1",
    "satisfies": false
  },
  {
    "range": ">=1.19 <1.22",
    "version": "4.5.1",
    "satisfies": false
  },
  {
    "range": ">=1.0.0-alpha0 <1.1.1",
    "version": "4.5.1",
    "satisfies": false
  },
  {
    "range": "<=0.6.2",
    "version": "4.5.1",
    "satisfies": false
  },
  {
    "range": "<1.12.1",
    "version": "4.5.1",
    "satisfies": false
  },
  {
    "range": "4.2.3",
    "version": "4.5.1",
    "satisfies": false
  },
  {
    "range": "<1.7.0",
    "version": "4.5.1",
    "satisfies": false
  },
  {
    "range": "<1.1.rc",
    "version": "4.5.1",
    "satisfies": false
  },
  {
    "range": "<1.3.0.pre.8",
    "version": "4.5.1",
    "satisfies": false
  },
  {
    "range": ">0.0.0a",
    "version": "4.5.1",
    "satisfies": true
  },
  {
    "range": "=3.0.0",
    "version": "4.5.1",
    "satisfies": false
  },
  {
    "range": ">=2.0.4 <4.0.0.beta1",
    "version": "4.5.1",
    "satisfies": false
  },
  {
    "range": "<=0.5.0",
    "version": "4.5.1",
    "satisfies": false
  },
  {
    "range": "=1.3.2.1",
    "version": "4.5.1",
    "satisfies": false
  },
  {
    "range": ">=0.8.0 <0.8.7.1",
    "version": "4.5.1",
    "satisfies": false
  },
  {
    "range": "<0.9.11",
    "version": "4.5.1",
    "satisfies": false
  },
  {
    "range": ">=4.1 <4.1.1 || >4.0 <4.0.5 || >=0.0 <3.2.18",
    "version": "4.5.1",
    "satisfies": false
  },
  {
    "range": ">=3.0.0.beta <3.2.17",
    "version": "4.5.1",
    "satisfies": false
  },
  {
    "range": "<3.2.17 || >=4.0.0.beta <4.0.3 || =4.1.0.beta1",
    "version": "4.5.1",
    "satisfies": false
  },
  {
    "range": ">4.0.0.beta <4.0.3 || =4.1.0.beta1",
    "version": "4.5.1",
    "satisfies": false
  },
  {
    "range": ">=3.0.0 <3.2.16||>=4.0.0.beta1 <4.0.2",
    "version": "4.5.1",
    "satisfies": false
  },
  {
    "range": "<2.6.2",
    "version": "4.5.1",
    "satisfies": false
  }
]
