[
  {
    "range": "",
    "version": "",
    "error": "Missing version"
  },
  {
    "range": "==2.0.1",
    "version": "",
    "error": "Missing version"
  },
  {
    "range": ">=0.6.3&&<1.0.1",
    "version": "1.0.0",
    "error": "Illformed requirement [\">=0.6.3&&<1.0.1\"]"
  },
  {
    "range": ">=1.2.3",
    "version": "1.3.3",
    "satisfies": true
  },
  {
    "range": ">=1.2.3",
    "version": "0.0.5",
    "satisfies": false
  },
  {
    "range": ">=1.3.2,<2.4.11",
    "version": "1.3.3",
    "error": "Illformed requirement [\">=1.3.2,<2.4.11\"]"
  },
  {
    "range": ">=1.3.2,<2.4.11",
    "version": "4.5.7",
    "error": "Illformed requirement [\">=1.3.2,<2.4.11\"]"
  },
  {
    "range": ">=1.4 <1.4.11||>=1.5 <1.5.6||>=1.6 <1.6.3",
    "version": "1.6.1",
    "satisfies": true
  },
  {
    "range": ">=1.4 <1.4.11||>=1.5 <1.5.6||>=1.6 <1.6.3",
    "version": "1.0",
    "satisfies": false
  },
  {
    "range": ">=1.4 <1.4.11rc1||>=1.5 <1.5.6||>=1.6 <1.6.3",
    "version": "1.4.10rc2",
    "satisfies": true
  },
  {
    "range": ">=1.4 <1.4.11rc1||>=1.5 <1.5.6||>=1.6 <1.6.3",
    "version": "1.4.11rc2",
    "satisfies": false
  }
]
